<?xml version="1.0" encoding="UTF-8" standalone="no"?>
<!-- Created with Inkscape (http://www.inkscape.org/) -->

<svg
   xmlns:dc="http://purl.org/dc/elements/1.1/"
   xmlns:cc="http://creativecommons.org/ns#"
   xmlns:rdf="http://www.w3.org/1999/02/22-rdf-syntax-ns#"
   xmlns:svg="http://www.w3.org/2000/svg"
   xmlns="http://www.w3.org/2000/svg"
   xmlns:sodipodi="http://sodipodi.sourceforge.net/DTD/sodipodi-0.dtd"
   xmlns:inkscape="http://www.inkscape.org/namespaces/inkscape"
   version="1.0"
   width="2600.9568"
   height="408.40155"
   id="svg3642"
   inkscape:version="0.92.1 r"
   sodipodi:docname="gnome-ipsilon.svg">
  <metadata
     id="metadata24">
    <rdf:RDF>
      <cc:Work
         rdf:about="">
        <dc:format>image/svg+xml</dc:format>
        <dc:type
           rdf:resource="http://purl.org/dc/dcmitype/StillImage" />
        <dc:title></dc:title>
      </cc:Work>
    </rdf:RDF>
  </metadata>
  <sodipodi:namedview
     pagecolor="#000000"
     bordercolor="#666666"
     borderopacity="1"
     objecttolerance="10"
     gridtolerance="10"
     guidetolerance="10"
     inkscape:pageopacity="0"
     inkscape:pageshadow="2"
     inkscape:window-width="1280"
     inkscape:window-height="961"
     id="namedview22"
     showgrid="false"
     inkscape:zoom="0.5"
     inkscape:cx="1440.7355"
     inkscape:cy="179.69197"
     inkscape:window-x="0"
     inkscape:window-y="27"
     inkscape:window-maximized="1"
     inkscape:current-layer="g15041"
     showborder="true"
     borderlayer="false"
     inkscape:showpageshadow="false" />
  <defs
     id="defs3644" />
  <g
     transform="translate(162.8693,-197.3138)"
     id="layer1">
    <g
       transform="matrix(1.293235,0,0,1.293235,-4878.321,-1224.915)"
       id="g15041">
      <g
         transform="matrix(2.438586,0,0,2.438586,3659.952,1113.451)"
         style="fill:#ffffff;fill-opacity:1;fill-rule:nonzero;stroke:none;stroke-miterlimit:4"
         id="g15043">
        <g
           style="fill:#ffffff;fill-opacity:1"
           id="g15045">
          <path
             d="M 86.068,0 C 61.466,0 56.851,35.041 70.691,35.041 84.529,35.041 110.671,0 86.068,0 Z"
             style="fill:#ffffff;fill-opacity:1"
             id="path15047"
             inkscape:connector-curvature="0" />
          <path
             d="M 45.217,30.699 C 52.586,31.149 60.671,2.577 46.821,4.374 32.976,6.171 37.845,30.249 45.217,30.699 Z"
             style="fill:#ffffff;fill-opacity:1"
             id="path15049"
             inkscape:connector-curvature="0" />
          <path
             d="M 11.445,48.453 C 16.686,46.146 12.12,23.581 3.208,29.735 -5.7,35.89 6.204,50.759 11.445,48.453 Z"
             style="fill:#ffffff;fill-opacity:1"
             id="path15051"
             inkscape:connector-curvature="0" />
          <path
             d="M 26.212,36.642 C 32.451,35.37 32.793,9.778 21.667,14.369 10.539,18.961 19.978,37.916 26.212,36.642 Z"
             style="fill:#ffffff;fill-opacity:1"
             id="path15053"
             inkscape:connector-curvature="0" />
          <path
             d="m 58.791,93.913 c 1.107,8.454 -6.202,12.629 -13.36,7.179 C 22.644,83.743 83.16,75.088 79.171,51.386 75.86,31.712 15.495,37.769 8.621,68.553 3.968,89.374 27.774,118.26 52.614,118.26 c 12.22,0 26.315,-11.034 28.952,-25.012 C 83.58,82.589 57.867,86.86 58.791,93.913 Z"
             style="fill:#ffffff;fill-opacity:1"
             id="path15055"
             inkscape:connector-curvature="0" />
        </g>
      </g>
      <g
         id="g15057"
         style="fill:#ffffff">
        <path
           d="m 4176.2963,1214.4401 c -15.1078,0.4069 -27.0386,5.8367 -35.8126,16.25 -9.0861,10.8369 -13.6562,25.8104 -13.6562,44.9063 0,19.0432 4.5703,33.9757 13.6562,44.8124 9.1305,10.8369 21.6664,16.25 37.6563,16.25 16.034,0 28.6014,-5.4131 37.6875,-16.25 9.0859,-10.8367 13.6251,-25.7692 13.625,-44.8124 -1e-4,-19.0959 -4.5391,-34.0694 -13.625,-44.9063 -9.0861,-10.8366 -21.6536,-16.2499 -37.6875,-16.25 -0.6246,0 -1.2296,-0.016 -1.8437,0 z m 1.125,22 c 0.2415,-0.01 0.4737,0 0.7187,0 7.8833,10e-5 13.9919,3.4114 18.3125,10.25 4.3203,6.8388 6.4999,16.4913 6.5,28.9063 0,12.3623 -2.1799,21.9427 -6.5,28.7812 -4.3204,6.8389 -10.4293,10.2812 -18.3125,10.2812 -7.8391,0 -13.8983,-3.4423 -18.2187,-10.2812 -4.3204,-6.8385 -6.4999,-16.4189 -6.5,-28.7812 0,-12.4149 2.1798,-22.0675 6.5,-28.9063 4.1852,-6.6249 10.0123,-10.0428 17.5,-10.25 z"
           style="font-style:normal;font-variant:normal;font-weight:bold;font-stretch:normal;font-size:148.699646px;line-height:125%;font-family:'Bitstream Vera Sans';text-align:start;writing-mode:lr-tb;text-anchor:start;fill:#ffffff;fill-opacity:1;stroke:none;stroke-width:1.00000003pt;stroke-linecap:butt;stroke-linejoin:miter;stroke-opacity:1"
           id="path15059"
           inkscape:connector-curvature="0" />
        <path
           d="m 4005.6293,1325.612 c -13.3076,11.1757 -33.1067,11.0472 -41.3549,11.0472 -16.6133,0 -29.7747,-5.471 -39.4842,-16.413 -9.7097,-10.9946 -14.5644,-25.8819 -14.5644,-44.6622 0,-18.9906 4.9438,-33.9305 14.8316,-44.82 9.8878,-10.8892 23.4277,-16.3339 40.62,-16.334 6.6363,10e-5 12.9831,0.7366 19.0406,2.2094 6.1019,1.473 11.8475,3.6562 17.2368,6.5494 l -6.921,20.4608 c -3.0298,-1.6586 -6.4987,-3.2932 -9.7145,-4.4424 -5.4784,-1.8411 -10.979,-2.7617 -16.5018,-2.7618 -10.2442,10e-5 -18.15,3.3932 -23.7173,10.1792 -5.523,6.7336 -8.2844,16.3867 -8.2844,28.9594 0,12.4676 2.6723,22.0945 8.0172,28.8806 5.3446,6.7861 13.3768,10.1791 22.7818,10.1791 9.5548,0 15.4728,-2.4084 18.6291,-4.9461 v -20.3835 h -20.7001 v -20.3584 h 40.0855"
           style="font-style:normal;font-variant:normal;font-weight:bold;font-stretch:normal;font-size:148.699646px;line-height:125%;font-family:'Bitstream Vera Sans';text-align:start;writing-mode:lr-tb;text-anchor:start;fill:#ffffff;fill-opacity:1;stroke:none;stroke-width:1.00000003pt;stroke-linecap:butt;stroke-linejoin:miter;stroke-opacity:1"
           id="path15061"
           inkscape:connector-curvature="0" />
        <path
           d="m 4023.2108,1216.5605 h 16.2279 l 51.2775,70.8022 v -70.8022 h 21.8853 v 117.8103 h -16.2279 l -51.2774,-70.8022 v 70.8022 h -21.8854 v -117.8103"
           style="font-style:normal;font-variant:normal;font-weight:bold;font-stretch:normal;font-size:148.699646px;line-height:125%;font-family:'Bitstream Vera Sans';text-align:start;writing-mode:lr-tb;text-anchor:start;fill:#ffffff;fill-opacity:1;stroke:none;stroke-width:1.00000003pt;stroke-linecap:butt;stroke-linejoin:miter;stroke-opacity:1"
           id="path15063"
           inkscape:connector-curvature="0" />
        <path
           d="m 4246.3361,1216.5605 h 32.7366 l 22.7151,73.5479 22.8487,-73.5479 h 27.6698 l 12.5,117.8103 h -24.3186 l -7.5,-73.668 -22.9823,74.0213 h -16.3015 l -22.9824,-76.5213 -7.5,76.168 h -24.3854 l 12.5,-117.8103"
           style="font-style:normal;font-variant:normal;font-weight:bold;font-stretch:normal;font-size:148.699646px;line-height:125%;font-family:'Bitstream Vera Sans';text-align:start;writing-mode:lr-tb;text-anchor:start;fill:#ffffff;fill-opacity:1;stroke:none;stroke-width:1.00000003pt;stroke-linecap:butt;stroke-linejoin:miter;stroke-opacity:1"
           id="path15065"
           inkscape:connector-curvature="0" />
        <path
           d="m 4382.3597,1216.5605 h 69.4147 v 22.9624 h -43.6933 v 24.4365 h 33.5877 v 20.4623 h -33.5877 v 26.9868 h 45.1631 v 22.9623 h -70.8845 v -117.8103"
           style="font-style:normal;font-variant:normal;font-weight:bold;font-stretch:normal;font-size:148.699646px;line-height:125%;font-family:'Bitstream Vera Sans';text-align:start;writing-mode:lr-tb;text-anchor:start;fill:#ffffff;fill-opacity:1;stroke:none;stroke-width:1.00000003pt;stroke-linecap:butt;stroke-linejoin:miter;stroke-opacity:1"
           id="path15067"
           inkscape:connector-curvature="0" />
      </g>
      <g
         aria-label="OpenID Provider"
         transform="matrix(0.77325467,0,0,0.77325467,3398.9029,1178.4242)"
         style="font-style:normal;font-variant:normal;font-weight:normal;font-stretch:normal;font-size:14px;line-height:25px;font-family:Cantarell;-inkscape-font-specification:Cantarell;text-align:center;letter-spacing:0px;word-spacing:0px;writing-mode:lr-tb;text-anchor:middle;fill:#000000;fill-opacity:1;stroke:none;stroke-width:1px;stroke-linecap:butt;stroke-linejoin:miter;stroke-opacity:1"
         id="flowRoot4511">
        <path
           d="m 1495.3145,103.2207 q -13.75,0 -21.3282,10.15625 -7.5781,10.15625 -7.5781,28.59375 0,18.35938 7.5781,28.51563 7.5782,10.15625 21.3282,10.15625 13.8281,0 21.4062,-10.15625 7.5781,-10.15625 7.5781,-28.51563 0,-18.4375 -7.5781,-28.59375 -7.5781,-10.15625 -21.4062,-10.15625 z m 0,-21.796872 q 28.125,0 44.0625,16.09375 15.9375,16.093752 15.9375,44.453122 0,28.28125 -15.9375,44.375 -15.9375,16.09375 -44.0625,16.09375 -28.0469,0 -44.0625,-16.09375 -15.9375,-16.09375 -15.9375,-44.375 0,-28.35937 15.9375,-44.453122 16.0156,-16.09375 44.0625,-16.09375 z"
           style="font-style:normal;font-variant:normal;font-weight:bold;font-stretch:normal;font-size:160px;font-family:'Bitstream Vera Sans';-inkscape-font-specification:'Bitstream Vera Sans, Bold';font-variant-ligatures:normal;font-variant-caps:normal;font-variant-numeric:normal;font-feature-settings:normal;text-align:center;writing-mode:lr-tb;text-anchor:middle;fill:#ffffff"
           id="path4519"
           inkscape:connector-curvature="0" />
        <path
           d="m 1604.6895,187.51758 v 45.9375 h -27.9688 V 112.67383 h 27.9688 v 12.8125 q 5.7812,-7.65625 12.8125,-11.25 7.0312,-3.67188 16.1718,-3.67188 16.1719,0 26.5625,12.89063 10.3907,12.8125 10.3907,33.04687 0,20.23438 -10.3907,33.125 -10.3906,12.8125 -26.5625,12.8125 -9.1406,0 -16.1718,-3.59375 -7.0313,-3.67187 -12.8125,-11.32812 z m 18.5937,-56.64063 q -8.9844,0 -13.8281,6.64063 -4.7656,6.5625 -4.7656,18.98437 0,12.42188 4.7656,19.0625 4.8437,6.5625 13.8281,6.5625 8.9844,0 13.6719,-6.5625 4.7656,-6.5625 4.7656,-19.0625 0,-12.5 -4.7656,-19.0625 -4.6875,-6.5625 -13.6719,-6.5625 z"
           style="font-style:normal;font-variant:normal;font-weight:bold;font-stretch:normal;font-size:160px;font-family:'Bitstream Vera Sans';-inkscape-font-specification:'Bitstream Vera Sans, Bold';font-variant-ligatures:normal;font-variant-caps:normal;font-variant-numeric:normal;font-feature-settings:normal;text-align:center;writing-mode:lr-tb;text-anchor:middle;fill:#ffffff"
           id="path4521"
           inkscape:connector-curvature="0" />
        <path
           d="m 1778.752,156.18945 v 7.96875 h -65.3907 q 1.0157,9.84375 7.1094,14.76563 6.0938,4.92187 17.0313,4.92187 8.8281,0 18.0468,-2.57812 9.2969,-2.65625 19.0625,-7.96875 v 21.5625 q -9.9218,3.75 -19.8437,5.625 -9.9219,1.95312 -19.8438,1.95312 -23.75,0 -36.9531,-12.03125 -13.125,-12.10937 -13.125,-33.90625 0,-21.40625 12.8906,-33.67187 12.9688,-12.26563 35.625,-12.26563 20.625,0 32.9688,12.42188 12.4219,12.42187 12.4219,33.20312 z m -28.75,-9.29687 q 0,-7.96875 -4.6875,-12.8125 -4.6094,-4.92188 -12.1094,-4.92188 -8.125,0 -13.2031,4.60938 -5.0782,4.53125 -6.3282,13.125 z"
           style="font-style:normal;font-variant:normal;font-weight:bold;font-stretch:normal;font-size:160px;font-family:'Bitstream Vera Sans';-inkscape-font-specification:'Bitstream Vera Sans, Bold';font-variant-ligatures:normal;font-variant-caps:normal;font-variant-numeric:normal;font-feature-settings:normal;text-align:center;writing-mode:lr-tb;text-anchor:middle;fill:#ffffff"
           id="path4523"
           inkscape:connector-curvature="0" />
        <path
           d="m 1887.8145,146.89258 v 53.28125 h -28.125 v -8.67188 -32.10937 q 0,-11.32813 -0.5469,-15.625 -0.4688,-4.29688 -1.7188,-6.32813 -1.6406,-2.73437 -4.4531,-4.21875 -2.8125,-1.5625 -6.4062,-1.5625 -8.75,0 -13.75,6.79688 -5,6.71875 -5,18.67187 v 43.04688 h -27.9688 v -87.5 h 27.9688 v 12.8125 q 6.3281,-7.65625 13.4375,-11.25 7.1093,-3.67188 15.7031,-3.67188 15.1562,0 22.9687,9.29688 7.8907,9.29687 7.8907,27.03125 z"
           style="font-style:normal;font-variant:normal;font-weight:bold;font-stretch:normal;font-size:160px;font-family:'Bitstream Vera Sans';-inkscape-font-specification:'Bitstream Vera Sans, Bold';font-variant-ligatures:normal;font-variant-caps:normal;font-variant-numeric:normal;font-feature-settings:normal;text-align:center;writing-mode:lr-tb;text-anchor:middle;fill:#ffffff"
           id="path4525"
           inkscape:connector-curvature="0" />
        <path
           d="m 1915.1582,83.533203 h 30.0781 V 200.17383 h -30.0781 z"
           style="font-style:normal;font-variant:normal;font-weight:bold;font-stretch:normal;font-size:160px;font-family:'Bitstream Vera Sans';-inkscape-font-specification:'Bitstream Vera Sans, Bold';font-variant-ligatures:normal;font-variant-caps:normal;font-variant-numeric:normal;font-feature-settings:normal;text-align:center;writing-mode:lr-tb;text-anchor:middle;fill:#ffffff"
           id="path4527"
           inkscape:connector-curvature="0" />
        <path
           d="m 2004.9238,106.26758 v 71.17187 h 10.7813 q 18.4375,0 28.125,-9.14062 9.7656,-9.14063 9.7656,-26.5625 0,-17.34375 -9.6875,-26.40625 -9.6875,-9.0625 -28.2031,-9.0625 z m -30.0781,-22.734377 h 31.7188 q 26.5625,0 39.5312,3.828125 13.0469,3.75 22.3438,12.812502 8.2031,7.89062 12.1875,18.20312 3.9843,10.3125 3.9843,23.35938 0,13.20312 -3.9843,23.59375 -3.9844,10.3125 -12.1875,18.20312 -9.375,9.0625 -22.5,12.89063 -13.125,3.75 -39.375,3.75 h -31.7188 z"
           style="font-style:normal;font-variant:normal;font-weight:bold;font-stretch:normal;font-size:160px;font-family:'Bitstream Vera Sans';-inkscape-font-specification:'Bitstream Vera Sans, Bold';font-variant-ligatures:normal;font-variant-caps:normal;font-variant-numeric:normal;font-feature-settings:normal;text-align:center;writing-mode:lr-tb;text-anchor:middle;fill:#ffffff"
           id="path4529"
           inkscape:connector-curvature="0" />
        <path
           d="m 2163.2832,83.533203 h 49.9219 q 22.2656,0 34.1406,9.921875 11.9531,9.843752 11.9531,28.125002 0,18.35937 -11.9531,28.28125 -11.875,9.84375 -34.1406,9.84375 h -19.8438 v 40.46875 h -30.0781 z m 30.0781,21.796877 v 32.57812 h 16.6407 q 8.75,0 13.5156,-4.21875 4.7656,-4.29687 4.7656,-12.10937 0,-7.8125 -4.7656,-12.03125 -4.7656,-4.21875 -13.5156,-4.21875 z"
           style="font-style:normal;font-variant:normal;font-weight:bold;font-stretch:normal;font-size:160px;font-family:'Bitstream Vera Sans';-inkscape-font-specification:'Bitstream Vera Sans, Bold';font-variant-ligatures:normal;font-variant-caps:normal;font-variant-numeric:normal;font-feature-settings:normal;text-align:center;writing-mode:lr-tb;text-anchor:middle;fill:#ffffff"
           id="path4531"
           inkscape:connector-curvature="0" />
        <path
           d="m 2344.2207,136.50195 q -3.6719,-1.71875 -7.3437,-2.5 -3.5938,-0.85937 -7.2657,-0.85937 -10.7812,0 -16.6406,6.95312 -5.7812,6.875 -5.7812,19.76563 v 40.3125 h -27.9688 v -87.5 h 27.9688 v 14.375 q 5.3906,-8.59375 12.3437,-12.5 7.0313,-3.98438 16.7969,-3.98438 1.4062,0 3.0469,0.15625 1.6406,0.0781 4.7656,0.46875 z"
           style="font-style:normal;font-variant:normal;font-weight:bold;font-stretch:normal;font-size:160px;font-family:'Bitstream Vera Sans';-inkscape-font-specification:'Bitstream Vera Sans, Bold';font-variant-ligatures:normal;font-variant-caps:normal;font-variant-numeric:normal;font-feature-settings:normal;text-align:center;writing-mode:lr-tb;text-anchor:middle;fill:#ffffff"
           id="path4533"
           inkscape:connector-curvature="0" />
        <path
           d="m 2399.9238,130.56445 q -9.2968,0 -14.2187,6.71875 -4.8438,6.64063 -4.8438,19.21875 0,12.57813 4.8438,19.29688 4.9219,6.64062 14.2187,6.64062 9.1407,0 13.9844,-6.64062 4.8438,-6.71875 4.8438,-19.29688 0,-12.57812 -4.8438,-19.21875 -4.8437,-6.71875 -13.9844,-6.71875 z m 0,-20 q 22.5782,0 35.2344,12.1875 12.7344,12.1875 12.7344,33.75 0,21.5625 -12.7344,33.75 -12.6562,12.1875 -35.2344,12.1875 -22.6562,0 -35.4687,-12.1875 -12.7344,-12.1875 -12.7344,-33.75 0,-21.5625 12.7344,-33.75 12.8125,-12.1875 35.4687,-12.1875 z"
           style="font-style:normal;font-variant:normal;font-weight:bold;font-stretch:normal;font-size:160px;font-family:'Bitstream Vera Sans';-inkscape-font-specification:'Bitstream Vera Sans, Bold';font-variant-ligatures:normal;font-variant-caps:normal;font-variant-numeric:normal;font-feature-settings:normal;text-align:center;writing-mode:lr-tb;text-anchor:middle;fill:#ffffff"
           id="path4535"
           inkscape:connector-curvature="0" />
        <path
           d="m 2457.2676,112.67383 h 27.9687 l 21.7969,60.46875 21.7188,-60.46875 h 28.0468 l -34.4531,87.5 h -30.7031 z"
           style="font-style:normal;font-variant:normal;font-weight:bold;font-stretch:normal;font-size:160px;font-family:'Bitstream Vera Sans';-inkscape-font-specification:'Bitstream Vera Sans, Bold';font-variant-ligatures:normal;font-variant-caps:normal;font-variant-numeric:normal;font-feature-settings:normal;text-align:center;writing-mode:lr-tb;text-anchor:middle;fill:#ffffff"
           id="path4537"
           inkscape:connector-curvature="0" />
        <path
           d="m 2572.6582,112.67383 h 27.9688 v 87.5 h -27.9688 z m 0,-34.062502 h 27.9688 v 22.812502 h -27.9688 z"
           style="font-style:normal;font-variant:normal;font-weight:bold;font-stretch:normal;font-size:160px;font-family:'Bitstream Vera Sans';-inkscape-font-specification:'Bitstream Vera Sans, Bold';font-variant-ligatures:normal;font-variant-caps:normal;font-variant-numeric:normal;font-feature-settings:normal;text-align:center;writing-mode:lr-tb;text-anchor:middle;fill:#ffffff"
           id="path4539"
           inkscape:connector-curvature="0" />
        <path
           d="M 2687.1895,125.48633 V 78.611328 h 28.125 V 200.17383 h -28.125 v -12.65625 q -5.7813,7.73437 -12.7344,11.32812 -6.9531,3.59375 -16.0938,3.59375 -16.1718,0 -26.5625,-12.8125 -10.3906,-12.89062 -10.3906,-33.125 0,-20.23437 10.3906,-33.04687 10.3907,-12.89063 26.5625,-12.89063 9.0625,0 16.0157,3.67188 7.0312,3.59375 12.8125,11.25 z m -18.4375,56.64062 q 8.9843,0 13.6718,-6.5625 4.7657,-6.5625 4.7657,-19.0625 0,-12.5 -4.7657,-19.0625 -4.6875,-6.5625 -13.6718,-6.5625 -8.9063,0 -13.6719,6.5625 -4.6875,6.5625 -4.6875,19.0625 0,12.5 4.6875,19.0625 4.7656,6.5625 13.6719,6.5625 z"
           style="font-style:normal;font-variant:normal;font-weight:bold;font-stretch:normal;font-size:160px;font-family:'Bitstream Vera Sans';-inkscape-font-specification:'Bitstream Vera Sans, Bold';font-variant-ligatures:normal;font-variant-caps:normal;font-variant-numeric:normal;font-feature-settings:normal;text-align:center;writing-mode:lr-tb;text-anchor:middle;fill:#ffffff"
           id="path4541"
           inkscape:connector-curvature="0" />
        <path
           d="m 2829.6895,156.18945 v 7.96875 h -65.3907 q 1.0157,9.84375 7.1094,14.76563 6.0938,4.92187 17.0313,4.92187 8.8281,0 18.0468,-2.57812 9.2969,-2.65625 19.0625,-7.96875 v 21.5625 q -9.9218,3.75 -19.8437,5.625 -9.9219,1.95312 -19.8438,1.95312 -23.75,0 -36.9531,-12.03125 -13.125,-12.10937 -13.125,-33.90625 0,-21.40625 12.8906,-33.67187 12.9688,-12.26563 35.625,-12.26563 20.625,0 32.9688,12.42188 12.4219,12.42187 12.4219,33.20312 z m -28.75,-9.29687 q 0,-7.96875 -4.6875,-12.8125 -4.6094,-4.92188 -12.1094,-4.92188 -8.125,0 -13.2031,4.60938 -5.0782,4.53125 -6.3282,13.125 z"
           style="font-style:normal;font-variant:normal;font-weight:bold;font-stretch:normal;font-size:160px;font-family:'Bitstream Vera Sans';-inkscape-font-specification:'Bitstream Vera Sans, Bold';font-variant-ligatures:normal;font-variant-caps:normal;font-variant-numeric:normal;font-feature-settings:normal;text-align:center;writing-mode:lr-tb;text-anchor:middle;fill:#ffffff"
           id="path4543"
           inkscape:connector-curvature="0" />
        <path
           d="m 2915.7832,136.50195 q -3.6719,-1.71875 -7.3437,-2.5 -3.5938,-0.85937 -7.2657,-0.85937 -10.7812,0 -16.6406,6.95312 -5.7812,6.875 -5.7812,19.76563 v 40.3125 h -27.9688 v -87.5 h 27.9688 v 14.375 q 5.3906,-8.59375 12.3437,-12.5 7.0313,-3.98438 16.7969,-3.98438 1.4062,0 3.0469,0.15625 1.6406,0.0781 4.7656,0.46875 z"
           style="font-style:normal;font-variant:normal;font-weight:bold;font-stretch:normal;font-size:160px;font-family:'Bitstream Vera Sans';-inkscape-font-specification:'Bitstream Vera Sans, Bold';font-variant-ligatures:normal;font-variant-caps:normal;font-variant-numeric:normal;font-feature-settings:normal;text-align:center;writing-mode:lr-tb;text-anchor:middle;fill:#ffffff"
           id="path4545"
           inkscape:connector-curvature="0" />
      </g>
    </g>
  </g>
</svg>
