<?xml version="1.0" encoding="UTF-8" standalone="no"?>
<!-- Created with Inkscape (http://www.inkscape.org/) -->

<svg
   xmlns:dc="http://purl.org/dc/elements/1.1/"
   xmlns:cc="http://creativecommons.org/ns#"
   xmlns:rdf="http://www.w3.org/1999/02/22-rdf-syntax-ns#"
   xmlns:svg="http://www.w3.org/2000/svg"
   xmlns="http://www.w3.org/2000/svg"
   xmlns:sodipodi="http://sodipodi.sourceforge.net/DTD/sodipodi-0.dtd"
   xmlns:inkscape="http://www.inkscape.org/namespaces/inkscape"
   width="1123.024"
   height="786"
   viewBox="0 0 297.13343 207.9625"
   version="1.1"
   id="svg4936"
   inkscape:version="0.92+devel unknown"
   sodipodi:docname="website-hero.svg">
  <defs
     id="defs4930" />
  <sodipodi:namedview
     id="base"
     pagecolor="#ffffff"
     bordercolor="#666666"
     borderopacity="1.0"
     inkscape:pageopacity="0.0"
     inkscape:pageshadow="2"
     inkscape:zoom="1"
     inkscape:cx="625.21543"
     inkscape:cy="381.38126"
     inkscape:document-units="px"
     inkscape:current-layer="g4845"
     showgrid="false"
     inkscape:pagecheckerboard="true"
     units="px"
     inkscape:snap-bbox="true"
     inkscape:bbox-paths="true"
     inkscape:bbox-nodes="true"
     inkscape:showpageshadow="false"
     inkscape:window-width="3840"
     inkscape:window-height="2096"
     inkscape:window-x="0"
     inkscape:window-y="27"
     inkscape:window-maximized="1"
     fit-margin-top="0"
     fit-margin-left="0"
     fit-margin-right="0"
     fit-margin-bottom="0"
     inkscape:document-rotation="0">
    <inkscape:grid
       type="xygrid"
       id="grid5687"
       originx="-2.1705257e-10"
       originy="-3.7041668" />
  </sodipodi:namedview>
  <metadata
     id="metadata4933">
    <rdf:RDF>
      <cc:Work
         rdf:about="">
        <dc:format>image/svg+xml</dc:format>
        <dc:type
           rdf:resource="http://purl.org/dc/dcmitype/StillImage" />
        <dc:title />
      </cc:Work>
    </rdf:RDF>
  </metadata>
  <g
     inkscape:label="Layer 1"
     inkscape:groupmode="layer"
     id="layer1"
     transform="translate(0,-85.333327)">
    <g
       transform="matrix(0.26458333,0,0,0.26458333,-0.10514124,153.0742)"
       id="g4845">
      <g
         style="fill:#ffffff"
         id="g4659"
         transform="matrix(1.7890736,0,0,1.7890736,-1138.429,-676.32147)">
        <g
           style="fill:#ffffff"
           id="g4657"
           transform="matrix(0.11840388,0,0,0.11840388,865.19335,299.21794)">
          <g
             style="fill:#ffffff"
             id="g4655"
             transform="matrix(1.293235,0,0,1.293235,-4878.321,-1224.915)">
            <g
               id="g4635"
               style="fill:#ffffff;fill-opacity:1;fill-rule:nonzero;stroke:none"
               transform="matrix(2.438586,0,0,2.438586,3659.952,1113.451)">
              <g
                 id="g4633"
                 style="fill:#ffffff;fill-opacity:1">
                <path
                   id="path4623"
                   style="fill:#ffffff;fill-opacity:1"
                   d="M 86.068,0 C 61.466,0 56.851,35.041 70.691,35.041 84.529,35.041 110.671,0 86.068,0 Z"
                   inkscape:connector-curvature="0" />
                <path
                   id="path4625"
                   style="fill:#ffffff;fill-opacity:1"
                   d="M 45.217,30.699 C 52.586,31.149 60.671,2.577 46.821,4.374 32.976,6.171 37.845,30.249 45.217,30.699 Z"
                   inkscape:connector-curvature="0" />
                <path
                   id="path4627"
                   style="fill:#ffffff;fill-opacity:1"
                   d="M 11.445,48.453 C 16.686,46.146 12.12,23.581 3.208,29.735 -5.7,35.89 6.204,50.759 11.445,48.453 Z"
                   inkscape:connector-curvature="0" />
                <path
                   id="path4629"
                   style="fill:#ffffff;fill-opacity:1"
                   d="M 26.212,36.642 C 32.451,35.37 32.793,9.778 21.667,14.369 10.539,18.961 19.978,37.916 26.212,36.642 Z"
                   inkscape:connector-curvature="0" />
                <path
                   id="path4631"
                   style="fill:#ffffff;fill-opacity:1"
                   d="m 58.791,93.913 c 1.107,8.454 -6.202,12.629 -13.36,7.179 C 22.644,83.743 83.16,75.088 79.171,51.386 75.86,31.712 15.495,37.769 8.621,68.553 3.968,89.374 27.774,118.26 52.614,118.26 c 12.22,0 26.315,-11.034 28.952,-25.012 C 83.58,82.589 57.867,86.86 58.791,93.913 Z"
                   inkscape:connector-curvature="0" />
              </g>
            </g>
            <g
               style="fill:#ffffff"
               id="g4653">
              <path
                 id="path4637"
                 style="font-style:normal;font-variant:normal;font-weight:bold;font-stretch:normal;font-size:148.699646px;line-height:125%;font-family:'Bitstream Vera Sans';text-align:start;writing-mode:lr-tb;text-anchor:start;fill:#ffffff;fill-opacity:1;stroke:none"
                 d="m 4176.2963,1214.4401 c -15.1078,0.4069 -27.0386,5.8367 -35.8126,16.25 -9.0861,10.8369 -13.6562,25.8104 -13.6562,44.9063 0,19.0432 4.5703,33.9757 13.6562,44.8124 9.1305,10.8369 21.6664,16.25 37.6563,16.25 16.034,0 28.6014,-5.4131 37.6875,-16.25 9.0859,-10.8367 13.6251,-25.7692 13.625,-44.8124 -1e-4,-19.0959 -4.5391,-34.0694 -13.625,-44.9063 -9.0861,-10.8366 -21.6536,-16.2499 -37.6875,-16.25 -0.6246,0 -1.2296,-0.016 -1.8437,0 z m 1.125,22 c 0.2415,-0.01 0.4737,0 0.7187,0 7.8833,10e-5 13.9919,3.4114 18.3125,10.25 4.3203,6.8388 6.4999,16.4913 6.5,28.9063 0,12.3623 -2.1799,21.9427 -6.5,28.7812 -4.3204,6.8389 -10.4293,10.2812 -18.3125,10.2812 -7.8391,0 -13.8983,-3.4423 -18.2187,-10.2812 -4.3204,-6.8385 -6.4999,-16.4189 -6.5,-28.7812 0,-12.4149 2.1798,-22.0675 6.5,-28.9063 4.1852,-6.6249 10.0123,-10.0428 17.5,-10.25 z"
                 inkscape:connector-curvature="0" />
              <path
                 id="path4639"
                 style="font-style:normal;font-variant:normal;font-weight:bold;font-stretch:normal;font-size:148.699646px;line-height:125%;font-family:'Bitstream Vera Sans';text-align:start;writing-mode:lr-tb;text-anchor:start;fill:#ffffff;fill-opacity:1;stroke:none"
                 d="m 4005.6293,1325.612 c -13.3076,11.1757 -33.1067,11.0472 -41.3549,11.0472 -16.6133,0 -29.7747,-5.471 -39.4842,-16.413 -9.7097,-10.9946 -14.5644,-25.8819 -14.5644,-44.6622 0,-18.9906 4.9438,-33.9305 14.8316,-44.82 9.8878,-10.8892 23.4277,-16.3339 40.62,-16.334 6.6363,10e-5 12.9831,0.7366 19.0406,2.2094 6.1019,1.473 11.8475,3.6562 17.2368,6.5494 l -6.921,20.4608 c -3.0298,-1.6586 -6.4987,-3.2932 -9.7145,-4.4424 -5.4784,-1.8411 -10.979,-2.7617 -16.5018,-2.7618 -10.2442,10e-5 -18.15,3.3932 -23.7173,10.1792 -5.523,6.7336 -8.2844,16.3867 -8.2844,28.9594 0,12.4676 2.6723,22.0945 8.0172,28.8806 5.3446,6.7861 13.3768,10.1791 22.7818,10.1791 9.5548,0 15.4728,-2.4084 18.6291,-4.9461 v -20.3835 h -20.7001 v -20.3584 h 40.0855"
                 inkscape:connector-curvature="0" />
              <path
                 id="path4641"
                 style="font-style:normal;font-variant:normal;font-weight:bold;font-stretch:normal;font-size:148.699646px;line-height:125%;font-family:'Bitstream Vera Sans';text-align:start;writing-mode:lr-tb;text-anchor:start;fill:#ffffff;fill-opacity:1;stroke:none"
                 d="m 4023.2108,1216.5605 h 16.2279 l 51.2775,70.8022 v -70.8022 h 21.8853 v 117.8103 h -16.2279 l -51.2774,-70.8022 v 70.8022 h -21.8854 v -117.8103"
                 inkscape:connector-curvature="0" />
              <path
                 id="path4643"
                 style="font-style:normal;font-variant:normal;font-weight:bold;font-stretch:normal;font-size:148.699646px;line-height:125%;font-family:'Bitstream Vera Sans';text-align:start;writing-mode:lr-tb;text-anchor:start;fill:#ffffff;fill-opacity:1;stroke:none"
                 d="m 4246.3361,1216.5605 h 32.7366 l 22.7151,73.5479 22.8487,-73.5479 h 27.6698 l 12.5,117.8103 h -24.3186 l -7.5,-73.668 -22.9823,74.0213 h -16.3015 l -22.9824,-76.5213 -7.5,76.168 h -24.3854 l 12.5,-117.8103"
                 inkscape:connector-curvature="0" />
              <path
                 id="path4645"
                 style="font-style:normal;font-variant:normal;font-weight:bold;font-stretch:normal;font-size:148.699646px;line-height:125%;font-family:'Bitstream Vera Sans';text-align:start;writing-mode:lr-tb;text-anchor:start;fill:#ffffff;fill-opacity:1;stroke:none"
                 d="m 4382.3597,1216.5605 h 69.4147 v 22.9624 h -43.6933 v 24.4365 h 33.5877 v 20.4623 h -33.5877 v 26.9868 h 45.1631 v 22.9623 h -70.8845 v -117.8103"
                 inkscape:connector-curvature="0" />
              <g
                 id="g4651"
                 style="font-style:normal;font-weight:normal;font-size:30.68958855px;font-family:'Bitstream Vera Sans';fill:#ffffff;fill-opacity:1;stroke:none">
                <path
                   inkscape:connector-curvature="0"
                   id="path4647"
                   style="letter-spacing:0.2523815;fill:#ffffff"
                   d="m 4474.5283,1193.3702 h 18.9262 v 2.5475 h -7.9421 v 19.8253 h -3.042 v -19.8253 h -7.9421 v -2.5475" />
                <path
                   inkscape:connector-curvature="0"
                   id="path4649"
                   style="letter-spacing:0.2523815;fill:#ffffff"
                   d="m 4496.644,1193.3702 h 4.5105 l 5.7093,15.2249 5.7394,-15.2249 h 4.5105 v 22.3728 h -2.9521 v -19.6455 l -5.7693,15.3448 h -3.042 l -5.7692,-15.3448 v 19.6455 h -2.9371 v -22.3728" />
              </g>
            </g>
          </g>
        </g>
      </g>
      <g
         aria-label="The"
         style="color:#000000;font-style:normal;font-variant:normal;font-weight:300;font-stretch:normal;font-size:45.82252502px;line-height:71.5976944px;font-family:'Source Sans Pro';-inkscape-font-specification:'Source Sans Pro, Light';font-variant-ligatures:normal;font-variant-caps:normal;font-variant-numeric:normal;font-feature-settings:normal;text-indent:0;text-align:start;text-decoration:none;text-decoration-line:none;letter-spacing:0px;word-spacing:0px;text-transform:none;writing-mode:lr-tb;direction:ltr;baseline-shift:baseline;text-anchor:start;display:inline;overflow:visible;visibility:visible;fill:#ffffff;fill-opacity:1;fill-rule:nonzero;stroke:none;stroke-width:2.86390781;stroke-linecap:butt;stroke-linejoin:miter;stroke-opacity:1;marker:none;marker-start:none;marker-mid:none;marker-end:none;enable-background:accumulate"
         id="text4663">
        <path
           d="m 299.98677,-34.266689 h 2.10784 v -28.364143 h 9.62273 v -1.832901 h -21.3533 v 1.832901 h 9.62273 z"
           style="font-style:normal;font-variant:normal;font-weight:300;font-stretch:normal;font-size:45.82252502px;font-family:'Source Sans Pro';-inkscape-font-specification:'Source Sans Pro, Light';font-variant-ligatures:normal;font-variant-caps:normal;font-variant-numeric:normal;font-feature-settings:normal;text-align:start;writing-mode:lr-tb;text-anchor:start;fill:#ffffff;stroke-width:2.86390781"
           id="path5987"
           inkscape:connector-curvature="0" />
        <path
           d="m 317.23609,-34.266689 h 2.01619 v -16.587754 c 2.70353,-2.749352 4.58225,-4.124028 7.19413,-4.124028 3.57416,0 5.04048,2.199482 5.04048,6.873379 v 13.838403 h 2.01619 v -14.113338 c 0,-5.681993 -2.10783,-8.431345 -6.64426,-8.431345 -3.02429,0 -5.31542,1.695434 -7.60654,3.98656 V -57.682 -67.213085 h -2.01619 z"
           style="font-style:normal;font-variant:normal;font-weight:300;font-stretch:normal;font-size:45.82252502px;font-family:'Source Sans Pro';-inkscape-font-specification:'Source Sans Pro, Light';font-variant-ligatures:normal;font-variant-caps:normal;font-variant-numeric:normal;font-feature-settings:normal;text-align:start;writing-mode:lr-tb;text-anchor:start;fill:#ffffff;stroke-width:2.86390781"
           id="path5989"
           inkscape:connector-curvature="0" />
        <path
           d="m 339.56741,-45.218273 c 0,7.194137 4.53643,11.501454 10.1726,11.501454 3.20758,0 5.17795,-1.099741 6.9192,-2.153659 l -0.8248,-1.557966 c -1.64961,1.191386 -3.52834,1.970369 -5.91111,1.970369 -4.94883,0 -8.20223,-3.98656 -8.29388,-9.531085 h 15.8546 c 0.0916,-0.54987 0.0916,-1.099741 0.0916,-1.649611 0,-6.460976 -3.20757,-10.172601 -8.43134,-10.172601 -4.90301,0 -9.57691,4.398963 -9.57691,11.593099 z m 2.06201,-1.328853 c 0.45823,-5.26959 3.80327,-8.52299 7.56072,-8.52299 3.94074,0 6.46098,2.886819 6.46098,8.52299 z"
           style="font-style:normal;font-variant:normal;font-weight:300;font-stretch:normal;font-size:45.82252502px;font-family:'Source Sans Pro';-inkscape-font-specification:'Source Sans Pro, Light';font-variant-ligatures:normal;font-variant-caps:normal;font-variant-numeric:normal;font-feature-settings:normal;text-align:start;writing-mode:lr-tb;text-anchor:start;fill:#ffffff;stroke-width:2.86390781"
           id="path5991"
           inkscape:connector-curvature="0" />
      </g>
      <g
         aria-label="Conference"
         style="color:#000000;font-style:normal;font-variant:normal;font-weight:300;font-stretch:normal;font-size:45.82252502px;line-height:71.5976944px;font-family:'Source Sans Pro';-inkscape-font-specification:'Source Sans Pro, Light';font-variant-ligatures:normal;font-variant-caps:normal;font-variant-numeric:normal;font-feature-settings:normal;text-indent:0;text-align:start;text-decoration:none;text-decoration-line:none;letter-spacing:0px;word-spacing:0px;text-transform:none;writing-mode:lr-tb;direction:ltr;baseline-shift:baseline;text-anchor:start;display:inline;overflow:visible;visibility:visible;fill:#ffffff;fill-opacity:1;fill-rule:nonzero;stroke:none;stroke-width:2.86390781;stroke-linecap:butt;stroke-linejoin:miter;stroke-opacity:1;marker:none;marker-start:none;marker-mid:none;marker-end:none;enable-background:accumulate"
         id="text4667">
        <path
           d="m 629.40183,-49.433945 c 0,9.62273 5.17795,15.717126 12.64702,15.717126 3.89491,0 6.64426,-1.649611 8.98121,-4.307317 l -1.28303,-1.328854 c -2.19948,2.474417 -4.49061,3.711625 -7.60654,3.711625 -6.5068,0 -10.53918,-5.407058 -10.53918,-13.79258 0,-8.385522 4.07821,-13.655113 10.72247,-13.655113 2.74935,0 4.94884,1.237209 6.55262,3.07011 l 1.28303,-1.374676 c -1.60378,-1.878724 -4.35314,-3.61998 -7.83565,-3.61998 -7.69818,0 -12.92195,6.002751 -12.92195,15.579659 z"
           style="font-style:normal;font-variant:normal;font-weight:300;font-stretch:normal;font-size:45.82252502px;font-family:'Source Sans Pro';-inkscape-font-specification:'Source Sans Pro, Light';font-variant-ligatures:normal;font-variant-caps:normal;font-variant-numeric:normal;font-feature-settings:normal;text-align:start;writing-mode:lr-tb;text-anchor:start;fill:#ffffff;stroke-width:2.86390781"
           id="path5994"
           inkscape:connector-curvature="0" />
        <path
           d="m 655.12903,-45.218273 c 0,7.285782 4.58225,11.501454 9.85184,11.501454 5.31542,0 9.89767,-4.215672 9.89767,-11.501454 0,-7.377426 -4.58225,-11.593099 -9.89767,-11.593099 -5.26959,0 -9.85184,4.215673 -9.85184,11.593099 z m 2.10784,0 c 0,-5.81946 3.29922,-9.80602 7.744,-9.80602 4.44479,0 7.78983,3.98656 7.78983,9.80602 0,5.773638 -3.34504,9.714376 -7.78983,9.714376 -4.44478,0 -7.744,-3.940738 -7.744,-9.714376 z"
           style="font-style:normal;font-variant:normal;font-weight:300;font-stretch:normal;font-size:45.82252502px;font-family:'Source Sans Pro';-inkscape-font-specification:'Source Sans Pro, Light';font-variant-ligatures:normal;font-variant-caps:normal;font-variant-numeric:normal;font-feature-settings:normal;text-align:start;writing-mode:lr-tb;text-anchor:start;fill:#ffffff;stroke-width:2.86390781"
           id="path5996"
           inkscape:connector-curvature="0" />
        <path
           d="m 681.48414,-34.266689 h 2.01619 v -16.587754 c 2.70353,-2.749352 4.58226,-4.124028 7.19414,-4.124028 3.57416,0 5.04048,2.199482 5.04048,6.873379 v 13.838403 h 2.01619 v -14.113338 c 0,-5.681993 -2.10784,-8.431345 -6.64427,-8.431345 -3.02428,0 -5.31541,1.695434 -7.56071,3.940738 h -0.13747 l -0.18329,-3.390867 h -1.74126 z"
           style="font-style:normal;font-variant:normal;font-weight:300;font-stretch:normal;font-size:45.82252502px;font-family:'Source Sans Pro';-inkscape-font-specification:'Source Sans Pro, Light';font-variant-ligatures:normal;font-variant-caps:normal;font-variant-numeric:normal;font-feature-settings:normal;text-align:start;writing-mode:lr-tb;text-anchor:start;fill:#ffffff;stroke-width:2.86390781"
           id="path5998"
           inkscape:connector-curvature="0" />
        <path
           d="m 714.80857,-67.029795 c -1.00809,-0.458225 -2.19948,-0.73316 -3.20757,-0.73316 -3.48251,0 -5.45288,2.245304 -5.45288,6.598444 v 4.90301 l -3.02429,0.18329 v 1.557966 h 3.02429 v 20.253556 h 2.01619 v -20.253556 h 5.0863 v -1.741256 h -5.0863 v -4.765543 c 0,-3.161754 1.09974,-4.994655 3.43669,-4.994655 0.8248,0 1.74125,0.18329 2.6577,0.641515 z"
           style="font-style:normal;font-variant:normal;font-weight:300;font-stretch:normal;font-size:45.82252502px;font-family:'Source Sans Pro';-inkscape-font-specification:'Source Sans Pro, Light';font-variant-ligatures:normal;font-variant-caps:normal;font-variant-numeric:normal;font-feature-settings:normal;text-align:start;writing-mode:lr-tb;text-anchor:start;fill:#ffffff;stroke-width:2.86390781"
           id="path6000"
           inkscape:connector-curvature="0" />
        <path
           d="m 715.62909,-45.218273 c 0,7.194137 4.53643,11.501454 10.1726,11.501454 3.20757,0 5.17794,-1.099741 6.9192,-2.153659 l -0.82481,-1.557966 c -1.64961,1.191386 -3.52833,1.970369 -5.9111,1.970369 -4.94884,0 -8.20224,-3.98656 -8.29388,-9.531085 h 15.85459 c 0.0916,-0.54987 0.0916,-1.099741 0.0916,-1.649611 0,-6.460976 -3.20758,-10.172601 -8.43135,-10.172601 -4.90301,0 -9.5769,4.398963 -9.5769,11.593099 z m 2.06201,-1.328853 c 0.45823,-5.26959 3.80327,-8.52299 7.56072,-8.52299 3.94073,0 6.46097,2.886819 6.46097,8.52299 z"
           style="font-style:normal;font-variant:normal;font-weight:300;font-stretch:normal;font-size:45.82252502px;font-family:'Source Sans Pro';-inkscape-font-specification:'Source Sans Pro, Light';font-variant-ligatures:normal;font-variant-caps:normal;font-variant-numeric:normal;font-feature-settings:normal;text-align:start;writing-mode:lr-tb;text-anchor:start;fill:#ffffff;stroke-width:2.86390781"
           id="path6002"
           inkscape:connector-curvature="0" />
        <path
           d="m 739.56778,-34.266689 h 2.01619 v -14.983966 c 1.69543,-4.124027 4.03238,-5.636171 6.00275,-5.636171 0.87063,0 1.28303,0.09164 2.01619,0.366581 l 0.45822,-1.832901 c -0.73316,-0.366581 -1.37467,-0.458226 -2.19948,-0.458226 -2.61188,0 -4.76554,1.924546 -6.23186,4.628075 h -0.13747 l -0.18329,-4.078204 h -1.74125 z"
           style="font-style:normal;font-variant:normal;font-weight:300;font-stretch:normal;font-size:45.82252502px;font-family:'Source Sans Pro';-inkscape-font-specification:'Source Sans Pro, Light';font-variant-ligatures:normal;font-variant-caps:normal;font-variant-numeric:normal;font-feature-settings:normal;text-align:start;writing-mode:lr-tb;text-anchor:start;fill:#ffffff;stroke-width:2.86390781"
           id="path6004"
           inkscape:connector-curvature="0" />
        <path
           d="m 751.78592,-45.218273 c 0,7.194137 4.53643,11.501454 10.1726,11.501454 3.20758,0 5.17795,-1.099741 6.91921,-2.153659 l -0.82481,-1.557966 c -1.64961,1.191386 -3.52833,1.970369 -5.91111,1.970369 -4.94883,0 -8.20223,-3.98656 -8.29387,-9.531085 h 15.85459 c 0.0916,-0.54987 0.0916,-1.099741 0.0916,-1.649611 0,-6.460976 -3.20758,-10.172601 -8.43135,-10.172601 -4.90301,0 -9.57691,4.398963 -9.57691,11.593099 z m 2.06202,-1.328853 c 0.45822,-5.26959 3.80327,-8.52299 7.56071,-8.52299 3.94074,0 6.46098,2.886819 6.46098,8.52299 z"
           style="font-style:normal;font-variant:normal;font-weight:300;font-stretch:normal;font-size:45.82252502px;font-family:'Source Sans Pro';-inkscape-font-specification:'Source Sans Pro, Light';font-variant-ligatures:normal;font-variant-caps:normal;font-variant-numeric:normal;font-feature-settings:normal;text-align:start;writing-mode:lr-tb;text-anchor:start;fill:#ffffff;stroke-width:2.86390781"
           id="path6006"
           inkscape:connector-curvature="0" />
        <path
           d="m 775.72461,-34.266689 h 2.0162 v -16.587754 c 2.70352,-2.749352 4.58225,-4.124028 7.19413,-4.124028 3.57416,0 5.04048,2.199482 5.04048,6.873379 v 13.838403 h 2.01619 v -14.113338 c 0,-5.681993 -2.10784,-8.431345 -6.64427,-8.431345 -3.02428,0 -5.31541,1.695434 -7.56071,3.940738 h -0.13747 l -0.18329,-3.390867 h -1.74126 z"
           style="font-style:normal;font-variant:normal;font-weight:300;font-stretch:normal;font-size:45.82252502px;font-family:'Source Sans Pro';-inkscape-font-specification:'Source Sans Pro, Light';font-variant-ligatures:normal;font-variant-caps:normal;font-variant-numeric:normal;font-feature-settings:normal;text-align:start;writing-mode:lr-tb;text-anchor:start;fill:#ffffff;stroke-width:2.86390781"
           id="path6008"
           inkscape:connector-curvature="0" />
        <path
           d="m 798.23493,-45.218273 c 0,7.285782 4.30732,11.501454 9.98931,11.501454 2.79517,0 5.13212,-1.237208 7.01085,-2.932642 l -1.05392,-1.374675 c -1.51215,1.374675 -3.52834,2.520239 -5.86529,2.520239 -4.81136,0 -7.97311,-3.940738 -7.97311,-9.714376 0,-5.81946 3.48251,-9.80602 7.97311,-9.80602 2.15366,0 3.80327,1.008095 5.22377,2.336949 l 1.19139,-1.420499 c -1.46632,-1.374675 -3.43669,-2.703529 -6.46098,-2.703529 -5.36123,0 -10.03513,4.215673 -10.03513,11.593099 z"
           style="font-style:normal;font-variant:normal;font-weight:300;font-stretch:normal;font-size:45.82252502px;font-family:'Source Sans Pro';-inkscape-font-specification:'Source Sans Pro, Light';font-variant-ligatures:normal;font-variant-caps:normal;font-variant-numeric:normal;font-feature-settings:normal;text-align:start;writing-mode:lr-tb;text-anchor:start;fill:#ffffff;stroke-width:2.86390781"
           id="path6010"
           inkscape:connector-curvature="0" />
        <path
           d="m 818.01378,-45.218273 c 0,7.194137 4.53643,11.501454 10.1726,11.501454 3.20758,0 5.17795,-1.099741 6.91921,-2.153659 l -0.82481,-1.557966 c -1.64961,1.191386 -3.52833,1.970369 -5.91111,1.970369 -4.94883,0 -8.20223,-3.98656 -8.29387,-9.531085 h 15.85459 c 0.0916,-0.54987 0.0916,-1.099741 0.0916,-1.649611 0,-6.460976 -3.20758,-10.172601 -8.43135,-10.172601 -4.90301,0 -9.57691,4.398963 -9.57691,11.593099 z m 2.06202,-1.328853 c 0.45822,-5.26959 3.80327,-8.52299 7.56071,-8.52299 3.94074,0 6.46098,2.886819 6.46098,8.52299 z"
           style="font-style:normal;font-variant:normal;font-weight:300;font-stretch:normal;font-size:45.82252502px;font-family:'Source Sans Pro';-inkscape-font-specification:'Source Sans Pro, Light';font-variant-ligatures:normal;font-variant-caps:normal;font-variant-numeric:normal;font-feature-settings:normal;text-align:start;writing-mode:lr-tb;text-anchor:start;fill:#ffffff;stroke-width:2.86390781"
           id="path6012"
           inkscape:connector-curvature="0" />
      </g>
      <g
         aria-label="GUADEC"
         transform="scale(1.0020838,0.99792054)"
         style="font-style:normal;font-variant:normal;font-weight:bold;font-stretch:normal;font-size:144.00541687px;line-height:125%;font-family:Cantarell;-inkscape-font-specification:'Cantarell Bold';text-align:start;letter-spacing:0px;word-spacing:0px;writing-mode:lr-tb;text-anchor:start;fill:#ffffff;fill-opacity:1;stroke:none;stroke-width:1.06666672"
         id="text4685">
        <path
           d="m 274.14462,61.365263 c 0,33.553262 20.01675,51.841947 49.82587,51.841947 17.42466,0 30.67315,-4.32016 40.32152,-11.95245 V 55.461041 h -43.92166 v 16.272612 h 26.20899 v 21.02479 c -5.90422,2.880109 -10.51239,4.176158 -19.72874,4.176158 -20.30477,0 -34.99332,-11.664439 -34.99332,-36.289365 0,-23.328878 10.94441,-34.27329 35.42533,-34.27329 11.52044,0 21.60082,4.032152 29.2331,7.920298 l 4.89619,-15.69659 c -9.50436,-5.760217 -22.46485,-8.49632 -34.5613,-8.49632 -35.13732,0 -52.70598,20.448769 -52.70598,51.265929 z"
           style="fill:#ffffff;stroke-width:1.06666672"
           id="path5951"
           inkscape:connector-curvature="0" />
        <path
           d="m 425.11629,113.20721 c 27.93705,0 41.32956,-13.536507 41.32956,-42.33759 V 12.11541 h -18.00068 v 57.890178 c 0,18.720704 -7.63229,26.641002 -23.32888,26.641002 -15.26457,0 -23.32888,-8.640325 -23.32888,-26.641002 V 12.11541 h -17.71266 v 58.75421 c 0,28.657078 13.3925,42.33759 41.04154,42.33759 z"
           style="fill:#ffffff;stroke-width:1.06666672"
           id="path5953"
           inkscape:connector-curvature="0" />
        <path
           d="m 477.38126,111.76716 h 17.85667 l 9.50436,-26.496998 h 38.16143 l 9.79237,26.496998 h 17.71267 L 532.82335,12.11541 h -18.00068 z m 33.12125,-42.625605 12.96048,-37.729419 13.39251,37.729419 z"
           style="fill:#ffffff;stroke-width:1.06666672"
           id="path5955"
           inkscape:connector-curvature="0" />
        <path
           d="m 669.22572,58.341149 c 0,-30.529149 -21.02479,-46.225739 -53.85803,-46.225739 h -33.98528 v 99.65175 h 25.05694 c 11.37643,0 17.42466,-0.14401 26.353,-2.01608 23.04086,-6.48024 36.43337,-23.904897 36.43337,-51.409931 z M 615.79971,28.388022 c 22.89686,0 35.71334,10.800406 35.71334,32.401219 0,25.632964 -15.40858,34.705305 -40.46552,34.705305 H 599.09508 V 28.388022 Z"
           style="fill:#ffffff;stroke-width:1.06666672"
           id="path5957"
           inkscape:connector-curvature="0" />
        <path
           d="m 685.16757,111.76716 h 65.09045 V 95.494546 H 702.88023 V 67.269485 h 42.19359 V 50.996873 H 702.88023 V 28.388022 h 47.37779 V 12.11541 h -65.09045 z"
           style="fill:#ffffff;stroke-width:1.06666672"
           id="path5959"
           inkscape:connector-curvature="0" />
        <path
           d="m 761.00668,61.077252 c 0,31.249175 19.72874,52.129958 49.68187,52.129958 10.22438,0 24.19291,-2.7361 36.14536,-7.48828 l -4.89619,-15.696589 c -9.50436,4.608173 -22.17683,6.91226 -29.66511,6.91226 -20.16076,0 -33.55327,-13.53651 -33.55327,-35.857349 0,-20.448769 11.08842,-34.705306 31.53719,-34.705306 11.08842,0 21.3128,1.296049 30.52915,7.632287 l 4.89618,-15.69659 c -10.08038,-6.336238 -22.60885,-8.208309 -33.26525,-8.208309 -31.68119,0 -51.40993,20.016753 -51.40993,50.977918 z"
           style="fill:#ffffff;stroke-width:1.06666672"
           id="path5961"
           inkscape:connector-curvature="0" />
      </g>
      <g
         transform="translate(1.0830732,208.73855)"
         id="g5658">
        <path
           d="m 1040.5026,-423.85476 40.9102,-40.91229 v 40.91229 z"
           enable-background="new    "
           sodipodi:nodetypes="cccc"
           inkscape:connector-curvature="0"
           id="path5646"
           style="opacity:0.2;fill:#ffffff;fill-opacity:1;stroke-width:4.24244165" />
        <path
           d="m 1081.4103,-423.85342 40.904,40.90262 h -40.904 z"
           enable-background="new    "
           sodipodi:nodetypes="cccc"
           inkscape:connector-curvature="0"
           id="path5648"
           style="opacity:0.2;fill:#ffffff;fill-opacity:1;stroke-width:4.24244165" />
        <path
           style="opacity:0.1;fill:#ffffff;fill-opacity:1;stroke-width:4.24244165"
           id="path5650"
           inkscape:connector-curvature="0"
           sodipodi:nodetypes="cccc"
           enable-background="new    "
           d="m 999.48233,-301.5719 40.90397,-40.93404 h -40.90397 z" />
        <path
           style="opacity:0.2;fill:#ffffff;fill-opacity:1;stroke-width:4.24244165"
           id="path5652"
           inkscape:connector-curvature="0"
           sodipodi:nodetypes="cccc"
           enable-background="new    "
           d="m 1081.291,-383.41366 -40.904,40.90262 h 40.904 z" />
      </g>
      <g
         aria-label="Almería, Spain"
         style="font-size:33.94236755px;line-height:30.82073593px;font-family:'Source Sans Pro';-inkscape-font-specification:'Source Sans Pro';letter-spacing:0px;word-spacing:0px;fill:none;stroke:#000000;stroke-width:0.84855914px;stroke-linecap:butt;stroke-linejoin:miter;stroke-opacity:1"
         id="text8330">
        <path
           d="m 467.26109,157.79381 c 0.81462,-2.4778 1.52741,-4.92165 2.20625,-7.50127 h 0.13577 c 0.71279,2.57962 1.42558,5.02347 2.2402,7.50127 l 1.05221,3.39423 h -6.68664 z m -6.78847,12.45685 h 2.8851 l 2.13837,-6.78848 h 8.11222 l 2.10443,6.78848 h 3.02087 l -7.53521,-22.2662 h -3.19058 z"
           style="fill:#ffffff;stroke:none;stroke-width:0.84855914px"
           id="path8246" />
        <path
           d="m 484.60299,170.65796 c 0.74673,0 1.22192,-0.10182 1.59529,-0.27153 l -0.37337,-2.10443 c -0.30548,0.0679 -0.44125,0.0679 -0.61096,0.0679 -0.40731,0 -0.78067,-0.33942 -0.78067,-1.22192 V 146.08369 H 481.65 v 20.84061 c 0,2.40991 0.84856,3.73366 2.95299,3.73366 z"
           style="fill:#ffffff;stroke:none;stroke-width:0.84855914px"
           id="path8248" />
        <path
           d="m 490.33448,170.25066 h 2.78327 v -11.94772 c 1.52741,-1.69712 2.91904,-2.54567 4.14097,-2.54567 2.10442,0 3.08875,1.32375 3.08875,4.4125 v 10.08089 h 2.78328 v -11.94772 c 1.5274,-1.69712 2.85116,-2.54567 4.14097,-2.54567 2.07048,0 3.05481,1.32375 3.05481,4.4125 v 10.08089 h 2.78327 v -10.45425 c 0,-4.20886 -1.62923,-6.44905 -5.02347,-6.44905 -2.0026,0 -3.69971,1.28981 -5.43078,3.15664 -0.67884,-1.96866 -2.03654,-3.15664 -4.54827,-3.15664 -1.96866,0 -3.69972,1.22192 -5.1253,2.78327 h -0.10183 l -0.23759,-2.37596 h -2.30808 z"
           style="fill:#ffffff;stroke:none;stroke-width:0.84855914px"
           id="path8250" />
        <path
           d="m 525.12964,170.65796 c 2.2402,0 4.0052,-0.78067 5.43078,-1.69711 l -0.98433,-1.83289 c -1.22192,0.78067 -2.54568,1.28981 -4.10702,1.28981 -3.15664,0 -5.29501,-2.2402 -5.49867,-5.73626 h 11.1331 c 0.0679,-0.40731 0.10183,-1.01827 0.10183,-1.59529 0,-4.71799 -2.37597,-7.73886 -6.58482,-7.73886 -3.76761,0 -7.39944,3.29241 -7.39944,8.68924 0,5.39684 3.49606,8.62136 7.90857,8.62136 z m -5.19318,-9.97905 c 0.33942,-3.25847 2.44385,-5.1253 4.75193,-5.1253 2.57962,0 4.07309,1.79895 4.07309,5.1253 z"
           style="fill:#ffffff;stroke:none;stroke-width:0.84855914px"
           id="path8252" />
        <path
           d="m 535.2816,170.25066 h 2.78327 v -10.59002 c 1.1201,-2.78328 2.78327,-3.80155 4.17491,-3.80155 0.67885,0 1.05221,0.10183 1.59529,0.27154 l 0.54308,-2.44385 c -0.54308,-0.2376 -1.05221,-0.33942 -1.765,-0.33942 -1.86683,0 -3.56395,1.32375 -4.68405,3.39423 h -0.10183 l -0.23759,-2.98692 h -2.30808 z"
           style="fill:#ffffff;stroke:none;stroke-width:0.84855914px"
           id="path8254" />
        <path
           d="m 547.08187,170.25066 h 2.78328 v -16.49599 h -2.78328 z m 0.91645,-19.44898 5.32895,-5.19318 -1.96866,-1.86683 -4.78587,5.66837 z"
           style="fill:#ffffff;stroke:none;stroke-width:0.84855914px"
           id="path8256" />
        <path
           d="m 559.23642,170.65796 c 2.07048,0 3.90337,-1.08615 5.46472,-2.37596 h 0.10182 l 0.2376,1.96866 h 2.30808 v -10.11483 c 0,-4.10703 -1.69712,-6.78847 -5.73626,-6.78847 -2.6475,0 -4.95558,1.15404 -6.48299,2.13837 l 1.08615,1.93471 c 1.28981,-0.8825 3.02088,-1.765 4.92165,-1.765 2.71539,0 3.39423,2.03654 3.39423,4.14097 -7.02607,0.78067 -10.11482,2.57962 -10.11482,6.17751 0,2.95298 2.07048,4.68404 4.81982,4.68404 z m 0.81461,-2.24019 c -1.62923,0 -2.91904,-0.78068 -2.91904,-2.64751 0,-2.10442 1.90077,-3.46212 7.39943,-4.14097 v 4.58222 c -1.59529,1.42558 -2.8851,2.20626 -4.48039,2.20626 z"
           style="fill:#ffffff;stroke:none;stroke-width:0.84855914px"
           id="path8258" />
        <path
           d="m 572.02951,176.02086 c 2.74933,-1.15404 4.44645,-3.42818 4.44645,-6.34722 0,-2.03655 -0.8825,-3.29241 -2.34202,-3.29241 -1.1201,0 -2.07049,0.74673 -2.07049,1.96865 0,1.25587 0.91645,1.93472 2.0026,1.93472 0.10183,0 0.2376,0 0.33943,-0.0339 0.0339,1.79894 -1.1201,3.29241 -3.05482,4.14096 z"
           style="fill:#ffffff;stroke:none;stroke-width:0.84855914px"
           id="path8260" />
        <path
           d="m 594.16895,170.65796 c 4.68404,0 7.56914,-2.81721 7.56914,-6.34722 0,-3.29241 -2.0026,-4.81981 -4.58222,-5.93991 l -3.15664,-1.3577 c -1.765,-0.74673 -3.69971,-1.56135 -3.69971,-3.69972 0,-2.00259 1.66317,-3.25846 4.14097,-3.25846 2.07048,0 3.69971,0.81461 5.05741,2.10442 l 1.5274,-1.83288 c -1.59529,-1.62924 -3.93731,-2.74934 -6.58481,-2.74934 -4.03915,0 -6.99213,2.51174 -6.99213,5.90598 0,3.25846 2.40991,4.85376 4.51433,5.73626 l 3.19059,1.39163 c 2.10442,0.95039 3.69971,1.66318 3.69971,3.93732 0,2.17231 -1.73106,3.63183 -4.6501,3.63183 -2.30808,0 -4.54828,-1.1201 -6.14357,-2.78327 l -1.69712,1.96865 c 1.93472,2.0026 4.68405,3.29241 7.80675,3.29241 z"
           style="fill:#ffffff;stroke:none;stroke-width:0.84855914px"
           id="path8262" />
        <path
           d="m 605.81808,177.20884 h 2.78327 v -5.56655 l -0.0679,-2.8851 c 1.52741,1.18798 3.05481,1.90077 4.58222,1.90077 3.7676,0 7.1279,-3.29241 7.1279,-8.8929 0,-5.12529 -2.27414,-8.4177 -6.51694,-8.4177 -1.93471,0 -3.7676,1.05221 -5.26107,2.30808 h -0.10182 l -0.2376,-1.90077 h -2.30808 z m 6.82242,-8.8929 c -1.08616,0 -2.54568,-0.47519 -4.03915,-1.73106 v -8.6553 c 1.62924,-1.45953 3.02087,-2.2402 4.41251,-2.2402 3.1227,0 4.34462,2.44385 4.34462,6.07568 0,4.07309 -2.0026,6.55088 -4.71798,6.55088 z"
           style="fill:#ffffff;stroke:none;stroke-width:0.84855914px"
           id="path8264" />
        <path
           d="m 627.98297,170.65796 c 2.07048,0 3.90337,-1.08615 5.46472,-2.37596 h 0.10183 l 0.23759,1.96866 h 2.30808 v -10.11483 c 0,-4.10703 -1.69712,-6.78847 -5.73626,-6.78847 -2.6475,0 -4.95558,1.15404 -6.48299,2.13837 l 1.08616,1.93471 c 1.28981,-0.8825 3.02087,-1.765 4.92164,-1.765 2.71539,0 3.39424,2.03654 3.39424,4.14097 -7.02607,0.78067 -10.11483,2.57962 -10.11483,6.17751 0,2.95298 2.07049,4.68404 4.81982,4.68404 z m 0.81461,-2.24019 c -1.62923,0 -2.91904,-0.78068 -2.91904,-2.64751 0,-2.10442 1.90077,-3.46212 7.39944,-4.14097 v 4.58222 c -1.5953,1.42558 -2.88511,2.20626 -4.4804,2.20626 z"
           style="fill:#ffffff;stroke:none;stroke-width:0.84855914px"
           id="path8266" />
        <path
           d="m 641.2852,170.25066 h 2.78327 v -16.49599 h -2.78327 z m 1.42558,-19.89023 c 1.08615,0 1.93471,-0.74673 1.93471,-1.79895 0,-1.08615 -0.84856,-1.79894 -1.93471,-1.79894 -1.08616,0 -1.93472,0.71279 -1.93472,1.79894 0,1.05222 0.84856,1.79895 1.93472,1.79895 z"
           style="fill:#ffffff;stroke:none;stroke-width:0.84855914px"
           id="path8268" />
        <path
           d="m 649.63821,170.25066 h 2.78327 v -11.94772 c 1.66318,-1.66317 2.81722,-2.54567 4.51434,-2.54567 2.17231,0 3.1227,1.32375 3.1227,4.4125 v 10.08089 h 2.78327 v -10.45425 c 0,-4.20886 -1.56135,-6.44905 -5.02347,-6.44905 -2.27414,0 -3.97126,1.22192 -5.53261,2.78327 h -0.10182 l -0.2376,-2.37596 h -2.30808 z"
           style="fill:#ffffff;stroke:none;stroke-width:0.84855914px"
           id="path8270" />
      </g>
    </g>
  </g>
</svg>
